{"info":{"count":56,"pages":3,"next":"https://rickandmortyapi.com/api/character/?page=2&status=Alive&species=Alien&gender=Male","prev":null},"results":[{"id":24,"name":"Armagheadon","status":"Alive","species":"Alien","type":"Cromulon","gender":"Male","origin":{"name":"Signus 5 Expanse","url":"https://rickandmortyapi.com/api/location/22"},"location":{"name":"Signus 5 Expanse","url":"https://rickandmortyapi.com/api/location/22"},"image":"https://rickandmortyapi.com/api/character/avatar/24.jpeg","episode":["https://rickandmortyapi.com/api/episode/16"],"url":"https://rickandmortyapi.com/api/character/24","created":"2017-11-05T08:48:30.776Z"},{"id":50,"name":"Blim Blam","status":"Alive","species":"Alien","type":"Korblock","gender":"Male","origin":{"name":"unknown","url":""},"location":{"name":"Earth (Replacement Dimension)","url":"https://rickandmortyapi.com/api/location/20"},"image":"https://rickandmortyapi.com/api/character/avatar/50.jpeg","episode":["https://rickandmortyapi.com/api/episode/14"],"url":"https://rickandmortyapi.com/api/character/50","created":"2017-11-05T11:21:43.756Z"},{"id":51,"name":"Blue Diplomat","status":"Alive","species":"Alien","type":"","gender":"Male","origin":{"name":"unknown","url":""},"location":{"name":"Interdimensional Cable","url":"https://rickandmortyapi.com/api/location/6"},"image":"https://rickandmortyapi.com/api/character/avatar/51.jpeg","episode":["https://rickandmortyapi.com/api/episode/19"],"url":"https://rickandmortyapi.com/api/character/51","created":"2017-11-05T11:24:49.688Z"},{"id":57,"name":"Borpocian","status":"Alive","species":"Alien","type":"Elephant-Person","gender":"Male","origin":{"name":"unknown","url":""},"location":{"name":"unknown","url":""},"image":"https://rickandmortyapi.com/api/character/avatar/57.jpeg","episode":["https://rickandmortyapi.com/api/episode/22"],"url":"https://rickandmortyapi.com/api/character/57","created":"2017-11-05T11:38:29.459Z"},{"id":67,"name":"Collector","status":"Alive","species":"Alien","type":"Light bulb-Alien","gender":"Male","origin":{"name":"The Menagerie","url":"https://rickandmortyapi.com/api/location/25"},"location":{"name":"The Menagerie","url":"https://rickandmortyapi.com/api/location/25"},"image":"https://rickandmortyapi.com/api/character/avatar/67.jpeg","episode":["https://rickandmortyapi.com/api/episode/29"],"url":"https://rickandmortyapi.com/api/character/67","created":"2017-11-30T11:13:46.785Z"},{"id":90,"name":"Daron Jefferson","status":"Alive","species":"Alien","type":"Cone-nippled alien","gender":"Male","origin":{"name":"Unity's Planet","url":"https://rickandmortyapi.com/api/location/28"},"location":{"name":"Unity's Planet","url":"https://rickandmortyapi.com/api/location/28"},"image":"https://rickandmortyapi.com/api/character/avatar/90.jpeg","episode":["https://rickandmortyapi.com/api/episode/14"],"url":"https://rickandmortyapi.com/api/character/90","created":"2017-12-01T10:54:34.736Z"},{"id":121,"name":"Eyehole Man","status":"Alive","species":"Alien","type":"","gender":"Male","origin":{"name":"unknown","url":""},"location":{"name":"Interdimensional Cable","url":"https://rickandmortyapi.com/api/location/6"},"image":"https://rickandmortyapi.com/api/character/avatar/121.jpeg","episode":["https://rickandmortyapi.com/api/episode/19"],"url":"https://rickandmortyapi.com/api/character/121","created":"2017-12-26T16:41:58.391Z"},{"id":133,"name":"Garblovian","status":"Alive","species":"Alien","type":"Garblovian","gender":"Male","origin":{"name":"Glaagablaaga","url":"https://rickandmortyapi.com/api/location/36"},"location":{"name":"unknown","url":""},"image":"https://rickandmortyapi.com/api/character/avatar/133.jpeg","episode":["https://rickandmortyapi.com/api/episode/13","https://rickandmortyapi.com/api/episode/19","https://rickandmortyapi.com/api/episode/21"],"url":"https://rickandmortyapi.com/api/character/133","created":"2017-12-26T20:30:45.943Z"},{"id":134,"name":"Garmanarnar","status":"Alive","species":"Alien","type":"","gender":"Male","origin":{"name":"unknown","url":""},"location":{"name":"Interdimensional Cable","url":"https://rickandmortyapi.com/api/location/6"},"image":"https://rickandmortyapi.com/api/character/avatar/134.jpeg","episode":["https://rickandmortyapi.com/api/episode/8"],"url":"https://rickandmortyapi.com/api/character/134","created":"2017-12-26T20:36:54.577Z"},{"id":136,"name":"Gazorpazorpfield","status":"Alive","species":"Alien","type":"Gazorpian","gender":"Male","origin":{"name":"Gazorpazorp","url":"https://rickandmortyapi.com/api/location/40"},"location":{"name":"Interdimensional Cable","url":"https://rickandmortyapi.com/api/location/6"},"image":"https://rickandmortyapi.com/api/character/avatar/136.jpeg","episode":["https://rickandmortyapi.com/api/episode/8","https://rickandmortyapi.com/api/episode/13"],"url":"https://rickandmortyapi.com/api/character/136","created":"2017-12-27T17:59:59.058Z"},{"id":146,"name":"Glexo Slim Slom","status":"Alive","species":"Alien","type":"","gender":"Male","origin":{"name":"unknown","url":""},"location":{"name":"Nuptia 4","url":"https://rickandmortyapi.com/api/location/13"},"image":"https://rickandmortyapi.com/api/character/avatar/146.jpeg","episode":["https://rickandmortyapi.com/api/episode/18"],"url":"https://rickandmortyapi.com/api/character/146","created":"2017-12-29T11:28:29.380Z"},{"id":162,"name":"Ice-T","status":"Alive","species":"Alien","type":"Alphabetrian","gender":"Male","origin":{"name":"Alphabetrium","url":"https://rickandmortyapi.com/api/location/43"},"location":{"name":"Alphabetrium","url":"https://rickandmortyapi.com/api/location/43"},"image":"https://rickandmortyapi.com/api/character/avatar/162.jpeg","episode":["https://rickandmortyapi.com/api/episode/16"],"url":"https://rickandmortyapi.com/api/character/162","created":"2017-12-29T16:42:59.207Z"},{"id":184,"name":"Jon","status":"Alive","species":"Alien","type":"Gazorpian","gender":"Male","origin":{"name":"Gazorpazorp","url":"https://rickandmortyapi.com/api/location/40"},"location":{"name":"Interdimensional Cable","url":"https://rickandmortyapi.com/api/location/6"},"image":"https://rickandmortyapi.com/api/character/avatar/184.jpeg","episode":["https://rickandmortyapi.com/api/episode/8"],"url":"https://rickandmortyapi.com/api/character/184","created":"2017-12-29T18:54:04.572Z"},{"id":192,"name":"King Flippy Nips","status":"Alive","species":"Alien","type":"Plutonian","gender":"Male","origin":{"name":"Pluto","url":"https://rickandmortyapi.com/api/location/47"},"location":{"name":"Pluto","url":"https://rickandmortyapi.com/api/location/47"},"image":"https://rickandmortyapi.com/api/character/avatar/192.jpeg","episode":["https://rickandmortyapi.com/api/episode/9"],"url":"https://rickandmortyapi.com/api/character/192","created":"2017-12-29T19:49:29.297Z"},{"id":207,"name":"Loggins","status":"Alive","species":"Alien","type":"Alligator-Person","gender":"Male","origin":{"name":"unknown","url":""},"location":{"name":"Interdimensional Cable","url":"https://rickandmortyapi.com/api/location/6"},"image":"https://rickandmortyapi.com/api/character/avatar/207.jpeg","episode":["https://rickandmortyapi.com/api/episode/8","https://rickandmortyapi.com/api/episode/13","https://rickandmortyapi.com/api/episode/17"],"url":"https://rickandmortyapi.com/api/character/207","created":"2017-12-30T13:54:28.627Z"},{"id":213,"name":"Magnesium-J","status":"Alive","species":"Alien","type":"Alphabetrian","gender":"Male","origin":{"name":"Alphabetrium","url":"https://rickandmortyapi.com/api/location/43"},"location":{"name":"Alphabetrium","url":"https://rickandmortyapi.com/api/location/43"},"image":"https://rickandmortyapi.com/api/character/avatar/213.jpeg","episode":["https://rickandmortyapi.com/api/episode/16"],"url":"https://rickandmortyapi.com/api/character/213","created":"2017-12-30T14:21:16.121Z"},{"id":258,"name":"Pawnshop Clerk","status":"Alive","species":"Alien","type":"","gender":"Male","origin":{"name":"unknown","url":""},"location":{"name":"Pawn Shop Planet","url":"https://rickandmortyapi.com/api/location/55"},"image":"https://rickandmortyapi.com/api/character/avatar/258.jpeg","episode":["https://rickandmortyapi.com/api/episode/7"],"url":"https://rickandmortyapi.com/api/character/258","created":"2017-12-31T13:30:33.611Z"},{"id":263,"name":"Pibbles Bodyguard","status":"Alive","species":"Alien","type":"Hairy alien","gender":"Male","origin":{"name":"unknown","url":""},"location":{"name":"St. Gloopy Noops Hospital","url":"https://rickandmortyapi.com/api/location/16"},"image":"https://rickandmortyapi.com/api/character/avatar/263.jpeg","episode":["https://rickandmortyapi.com/api/episode/19"],"url":"https://rickandmortyapi.com/api/character/263","created":"2017-12-31T13:43:30.513Z"},{"id":301,"name":"Ron Benson","status":"Alive","species":"Alien","type":"Ring-nippled alien","gender":"Male","origin":{"name":"Unity's Planet","url":"https://rickandmortyapi.com/api/location/28"},"location":{"name":"Unity's Planet","url":"https://rickandmortyapi.com/api/location/28"},"image":"https://rickandmortyapi.com/api/character/avatar/301.jpeg","episode":["https://rickandmortyapi.com/api/episode/14"],"url":"https://rickandmortyapi.com/api/character/301","created":"2018-01-05T14:02:20.902Z"},{"id":307,"name":"Scroopy Noopers","status":"Alive","species":"Alien","type":"Plutonian","gender":"Male","origin":{"name":"Pluto","url":"https://rickandmortyapi.com/api/location/47"},"location":{"name":"Pluto","url":"https://rickandmortyapi.com/api/location/47"},"image":"https://rickandmortyapi.com/api/character/avatar/307.jpeg","episode":["https://rickandmortyapi.com/api/episode/9"],"url":"https://rickandmortyapi.com/api/character/307","created":"2018-01-05T14:20:41.693Z"}]}